-- Merging decision tree log ---
manifest
ADDED from /Users/shazakashlan/workspace/WeatherForecast/android/app/src/main/AndroidManifest.xml:1:1-53:12
INJECTED from /Users/shazakashlan/workspace/WeatherForecast/android/app/src/main/AndroidManifest.xml:1:1-53:12
INJECTED from /Users/shazakashlan/workspace/WeatherForecast/android/app/src/main/AndroidManifest.xml:1:1-53:12
INJECTED from /Users/shazakashlan/workspace/WeatherForecast/android/app/src/main/AndroidManifest.xml:1:1-53:12
MERGED from /Users/shazakashlan/workspace/WeatherForecast/android/app/src/main/AndroidManifest.xml:1:1-53:12
MERGED from [:geolocator] /Users/shazakashlan/workspace/WeatherForecast/build/geolocator/intermediates/library_manifest/debug/AndroidManifest.xml:2:1-9:12
MERGED from [:location_permissions] /Users/shazakashlan/workspace/WeatherForecast/build/location_permissions/intermediates/library_manifest/debug/AndroidManifest.xml:2:1-7:12
MERGED from [:shared_preferences] /Users/shazakashlan/workspace/WeatherForecast/build/shared_preferences/intermediates/library_manifest/debug/AndroidManifest.xml:2:1-7:12
MERGED from [:permission_handler] /Users/shazakashlan/workspace/WeatherForecast/build/permission_handler/intermediates/library_manifest/debug/AndroidManifest.xml:2:1-7:12
MERGED from [:access_settings_menu] /Users/shazakashlan/workspace/WeatherForecast/build/access_settings_menu/intermediates/library_manifest/debug/AndroidManifest.xml:2:1-7:12
MERGED from [:searchable_dropdown] /Users/shazakashlan/workspace/WeatherForecast/build/searchable_dropdown/intermediates/library_manifest/debug/AndroidManifest.xml:2:1-7:12
MERGED from [:google_api_availability] /Users/shazakashlan/workspace/WeatherForecast/build/google_api_availability/intermediates/library_manifest/debug/AndroidManifest.xml:2:1-7:12
MERGED from [com.google.android.gms:play-services-location:16.0.0] /Users/shazakashlan/.gradle/caches/transforms-2/files-2.1/a3c0f30214109547a24f66634bcfe4f6/jetified-play-services-location-16.0.0/AndroidManifest.xml:2:1-9:12
MERGED from [com.google.android.gms:play-services-base:17.2.1] /Users/shazakashlan/.gradle/caches/transforms-2/files-2.1/f81e9fffe318fdc5660099e12e35729e/play-services-base-17.2.1/AndroidManifest.xml:17:1-29:12
MERGED from [com.google.android.gms:play-services-places-placereport:16.0.0] /Users/shazakashlan/.gradle/caches/transforms-2/files-2.1/5c697fec7e55e9bb60005789c206ab6c/play-services-places-placereport-16.0.0/AndroidManifest.xml:17:1-24:12
MERGED from [com.google.android.gms:play-services-tasks:17.0.2] /Users/shazakashlan/.gradle/caches/transforms-2/files-2.1/32e01e3a0b7905dca7a358a9820047fe/play-services-tasks-17.0.2/AndroidManifest.xml:2:1-9:12
MERGED from [com.google.android.gms:play-services-basement:17.2.1] /Users/shazakashlan/.gradle/caches/transforms-2/files-2.1/b1eeb30505ac0c437b3c526c89f26020/jetified-play-services-basement-17.2.1/AndroidManifest.xml:17:1-28:12
MERGED from [androidx.fragment:fragment:1.1.0] /Users/shazakashlan/.gradle/caches/transforms-2/files-2.1/0986d0d74b8a2c7da8161f6370fc7744/fragment-1.1.0/AndroidManifest.xml:17:1-24:12
MERGED from [androidx.activity:activity:1.0.0] /Users/shazakashlan/.gradle/caches/transforms-2/files-2.1/615cab8ad6393a9c868d48761bbea666/activity-1.0.0/AndroidManifest.xml:17:1-24:12
MERGED from [androidx.viewpager:viewpager:1.0.0] /Users/shazakashlan/.gradle/caches/transforms-2/files-2.1/28d99d5113324aa067757f8ca41a426f/viewpager-1.0.0/AndroidManifest.xml:17:1-22:12
MERGED from [androidx.loader:loader:1.0.0] /Users/shazakashlan/.gradle/caches/transforms-2/files-2.1/e1bbce6b0d79e8479b70e7bd729bb743/loader-1.0.0/AndroidManifest.xml:17:1-22:12
MERGED from [androidx.customview:customview:1.0.0] /Users/shazakashlan/.gradle/caches/transforms-2/files-2.1/ef0bef029ab70f5fb29de019060cf5fd/customview-1.0.0/AndroidManifest.xml:17:1-22:12
MERGED from [androidx.core:core:1.2.0] /Users/shazakashlan/.gradle/caches/transforms-2/files-2.1/b6252bb7f30c7dceb20e97dfa6dfae00/core-1.2.0/AndroidManifest.xml:17:1-26:12
MERGED from [androidx.lifecycle:lifecycle-runtime:2.2.0] /Users/shazakashlan/.gradle/caches/transforms-2/files-2.1/49ede1f7b9aa322a43288e9745adc2db/lifecycle-runtime-2.2.0/AndroidManifest.xml:17:1-24:12
MERGED from [androidx.savedstate:savedstate:1.0.0] /Users/shazakashlan/.gradle/caches/transforms-2/files-2.1/54d8b8735f730e83f07925f758092af3/savedstate-1.0.0/AndroidManifest.xml:17:1-24:12
MERGED from [androidx.lifecycle:lifecycle-livedata:2.0.0] /Users/shazakashlan/.gradle/caches/transforms-2/files-2.1/23edc849475fdda61367cb003f9b9f93/lifecycle-livedata-2.0.0/AndroidManifest.xml:17:1-22:12
MERGED from [androidx.lifecycle:lifecycle-livedata-core:2.0.0] /Users/shazakashlan/.gradle/caches/transforms-2/files-2.1/79f9d65ef8b1c716310f666473a689a7/lifecycle-livedata-core-2.0.0/AndroidManifest.xml:17:1-22:12
MERGED from [androidx.arch.core:core-runtime:2.0.0] /Users/shazakashlan/.gradle/caches/transforms-2/files-2.1/077300052aa327ee6fc9bbb0ce309b24/core-runtime-2.0.0/AndroidManifest.xml:17:1-22:12
MERGED from [androidx.versionedparcelable:versionedparcelable:1.1.0] /Users/shazakashlan/.gradle/caches/transforms-2/files-2.1/3a7eb299570065a3866b140e1a95969b/versionedparcelable-1.1.0/AndroidManifest.xml:17:1-27:12
MERGED from [androidx.lifecycle:lifecycle-viewmodel:2.1.0] /Users/shazakashlan/.gradle/caches/transforms-2/files-2.1/b80fad55c42c418cc210e235056767fb/lifecycle-viewmodel-2.1.0/AndroidManifest.xml:17:1-22:12
MERGED from [androidx.multidex:multidex:2.0.0] /Users/shazakashlan/.gradle/caches/transforms-2/files-2.1/2b16ac6c4193835014f293427ee35afa/multidex-2.0.0/AndroidManifest.xml:17:1-22:12
INJECTED from /Users/shazakashlan/workspace/WeatherForecast/android/app/src/debug/AndroidManifest.xml:1:1-7:12
INJECTED from /Users/shazakashlan/workspace/WeatherForecast/android/app/src/debug/AndroidManifest.xml:1:1-7:12
INJECTED from /Users/shazakashlan/workspace/WeatherForecast/android/app/src/debug/AndroidManifest.xml:1:1-7:12
	package
		ADDED from /Users/shazakashlan/workspace/WeatherForecast/android/app/src/main/AndroidManifest.xml:2:5-42
		INJECTED from /Users/shazakashlan/workspace/WeatherForecast/android/app/src/main/AndroidManifest.xml
		INJECTED from /Users/shazakashlan/workspace/WeatherForecast/android/app/src/debug/AndroidManifest.xml
	android:versionName
		INJECTED from /Users/shazakashlan/workspace/WeatherForecast/android/app/src/main/AndroidManifest.xml
		ADDED from /Users/shazakashlan/workspace/WeatherForecast/android/app/src/main/AndroidManifest.xml:1:1-53:12
		INJECTED from /Users/shazakashlan/workspace/WeatherForecast/android/app/src/debug/AndroidManifest.xml
	android:versionCode
		INJECTED from /Users/shazakashlan/workspace/WeatherForecast/android/app/src/main/AndroidManifest.xml
		ADDED from /Users/shazakashlan/workspace/WeatherForecast/android/app/src/main/AndroidManifest.xml:1:1-53:12
		INJECTED from /Users/shazakashlan/workspace/WeatherForecast/android/app/src/debug/AndroidManifest.xml
	xmlns:android
		ADDED from /Users/shazakashlan/workspace/WeatherForecast/android/app/src/main/AndroidManifest.xml:1:11-69
uses-permission#android.permission.ACCESS_COARSE_LOCATION
ADDED from /Users/shazakashlan/workspace/WeatherForecast/android/app/src/main/AndroidManifest.xml:3:5-81
	android:name
		ADDED from /Users/shazakashlan/workspace/WeatherForecast/android/app/src/main/AndroidManifest.xml:3:22-78
uses-permission#android.permission.INTERNET
ADDED from /Users/shazakashlan/workspace/WeatherForecast/android/app/src/main/AndroidManifest.xml:4:5-67
MERGED from /Users/shazakashlan/workspace/WeatherForecast/android/app/src/main/AndroidManifest.xml:4:5-67
MERGED from /Users/shazakashlan/workspace/WeatherForecast/android/app/src/main/AndroidManifest.xml:4:5-67
	android:name
		ADDED from /Users/shazakashlan/workspace/WeatherForecast/android/app/src/main/AndroidManifest.xml:4:22-64
uses-permission#android.permission.ACCESS_FINE_LOCATION
ADDED from /Users/shazakashlan/workspace/WeatherForecast/android/app/src/main/AndroidManifest.xml:10:5-79
MERGED from [:geolocator] /Users/shazakashlan/workspace/WeatherForecast/build/geolocator/intermediates/library_manifest/debug/AndroidManifest.xml:7:5-79
MERGED from [:geolocator] /Users/shazakashlan/workspace/WeatherForecast/build/geolocator/intermediates/library_manifest/debug/AndroidManifest.xml:7:5-79
	android:name
		ADDED from /Users/shazakashlan/workspace/WeatherForecast/android/app/src/main/AndroidManifest.xml:10:22-76
application
ADDED from /Users/shazakashlan/workspace/WeatherForecast/android/app/src/main/AndroidManifest.xml:11:5-52:19
MERGED from [com.google.android.gms:play-services-location:16.0.0] /Users/shazakashlan/.gradle/caches/transforms-2/files-2.1/a3c0f30214109547a24f66634bcfe4f6/jetified-play-services-location-16.0.0/AndroidManifest.xml:7:5-20
MERGED from [com.google.android.gms:play-services-location:16.0.0] /Users/shazakashlan/.gradle/caches/transforms-2/files-2.1/a3c0f30214109547a24f66634bcfe4f6/jetified-play-services-location-16.0.0/AndroidManifest.xml:7:5-20
MERGED from [com.google.android.gms:play-services-base:17.2.1] /Users/shazakashlan/.gradle/caches/transforms-2/files-2.1/f81e9fffe318fdc5660099e12e35729e/play-services-base-17.2.1/AndroidManifest.xml:22:5-27:19
MERGED from [com.google.android.gms:play-services-base:17.2.1] /Users/shazakashlan/.gradle/caches/transforms-2/files-2.1/f81e9fffe318fdc5660099e12e35729e/play-services-base-17.2.1/AndroidManifest.xml:22:5-27:19
MERGED from [com.google.android.gms:play-services-places-placereport:16.0.0] /Users/shazakashlan/.gradle/caches/transforms-2/files-2.1/5c697fec7e55e9bb60005789c206ab6c/play-services-places-placereport-16.0.0/AndroidManifest.xml:22:5-20
MERGED from [com.google.android.gms:play-services-places-placereport:16.0.0] /Users/shazakashlan/.gradle/caches/transforms-2/files-2.1/5c697fec7e55e9bb60005789c206ab6c/play-services-places-placereport-16.0.0/AndroidManifest.xml:22:5-20
MERGED from [com.google.android.gms:play-services-tasks:17.0.2] /Users/shazakashlan/.gradle/caches/transforms-2/files-2.1/32e01e3a0b7905dca7a358a9820047fe/play-services-tasks-17.0.2/AndroidManifest.xml:7:5-20
MERGED from [com.google.android.gms:play-services-tasks:17.0.2] /Users/shazakashlan/.gradle/caches/transforms-2/files-2.1/32e01e3a0b7905dca7a358a9820047fe/play-services-tasks-17.0.2/AndroidManifest.xml:7:5-20
MERGED from [com.google.android.gms:play-services-basement:17.2.1] /Users/shazakashlan/.gradle/caches/transforms-2/files-2.1/b1eeb30505ac0c437b3c526c89f26020/jetified-play-services-basement-17.2.1/AndroidManifest.xml:22:5-26:19
MERGED from [com.google.android.gms:play-services-basement:17.2.1] /Users/shazakashlan/.gradle/caches/transforms-2/files-2.1/b1eeb30505ac0c437b3c526c89f26020/jetified-play-services-basement-17.2.1/AndroidManifest.xml:22:5-26:19
MERGED from [androidx.core:core:1.2.0] /Users/shazakashlan/.gradle/caches/transforms-2/files-2.1/b6252bb7f30c7dceb20e97dfa6dfae00/core-1.2.0/AndroidManifest.xml:24:5-89
MERGED from [androidx.core:core:1.2.0] /Users/shazakashlan/.gradle/caches/transforms-2/files-2.1/b6252bb7f30c7dceb20e97dfa6dfae00/core-1.2.0/AndroidManifest.xml:24:5-89
MERGED from [androidx.versionedparcelable:versionedparcelable:1.1.0] /Users/shazakashlan/.gradle/caches/transforms-2/files-2.1/3a7eb299570065a3866b140e1a95969b/versionedparcelable-1.1.0/AndroidManifest.xml:24:5-25:19
MERGED from [androidx.versionedparcelable:versionedparcelable:1.1.0] /Users/shazakashlan/.gradle/caches/transforms-2/files-2.1/3a7eb299570065a3866b140e1a95969b/versionedparcelable-1.1.0/AndroidManifest.xml:24:5-25:19
	android:appComponentFactory
		ADDED from [androidx.core:core:1.2.0] /Users/shazakashlan/.gradle/caches/transforms-2/files-2.1/b6252bb7f30c7dceb20e97dfa6dfae00/core-1.2.0/AndroidManifest.xml:24:18-86
	android:label
		ADDED from /Users/shazakashlan/workspace/WeatherForecast/android/app/src/main/AndroidManifest.xml:13:9-40
	android:icon
		ADDED from /Users/shazakashlan/workspace/WeatherForecast/android/app/src/main/AndroidManifest.xml:14:9-43
	android:name
		ADDED from /Users/shazakashlan/workspace/WeatherForecast/android/app/src/main/AndroidManifest.xml:12:9-57
activity#com.example.WeatherForecast.MainActivity
ADDED from /Users/shazakashlan/workspace/WeatherForecast/android/app/src/main/AndroidManifest.xml:15:9-44:20
	android:launchMode
		ADDED from /Users/shazakashlan/workspace/WeatherForecast/android/app/src/main/AndroidManifest.xml:17:13-43
	android:hardwareAccelerated
		ADDED from /Users/shazakashlan/workspace/WeatherForecast/android/app/src/main/AndroidManifest.xml:20:13-47
	android:windowSoftInputMode
		ADDED from /Users/shazakashlan/workspace/WeatherForecast/android/app/src/main/AndroidManifest.xml:21:13-55
	android:configChanges
		ADDED from /Users/shazakashlan/workspace/WeatherForecast/android/app/src/main/AndroidManifest.xml:19:13-163
	android:theme
		ADDED from /Users/shazakashlan/workspace/WeatherForecast/android/app/src/main/AndroidManifest.xml:18:13-47
	android:name
		ADDED from /Users/shazakashlan/workspace/WeatherForecast/android/app/src/main/AndroidManifest.xml:16:13-41
meta-data#io.flutter.embedding.android.NormalTheme
ADDED from /Users/shazakashlan/workspace/WeatherForecast/android/app/src/main/AndroidManifest.xml:27:13-30:17
	android:resource
		ADDED from /Users/shazakashlan/workspace/WeatherForecast/android/app/src/main/AndroidManifest.xml:29:15-52
	android:name
		ADDED from /Users/shazakashlan/workspace/WeatherForecast/android/app/src/main/AndroidManifest.xml:28:15-70
meta-data#io.flutter.embedding.android.SplashScreenDrawable
ADDED from /Users/shazakashlan/workspace/WeatherForecast/android/app/src/main/AndroidManifest.xml:36:13-39:17
	android:resource
		ADDED from /Users/shazakashlan/workspace/WeatherForecast/android/app/src/main/AndroidManifest.xml:38:15-61
	android:name
		ADDED from /Users/shazakashlan/workspace/WeatherForecast/android/app/src/main/AndroidManifest.xml:37:15-79
intent-filter#action:name:android.intent.action.MAIN+category:name:android.intent.category.LAUNCHER
ADDED from /Users/shazakashlan/workspace/WeatherForecast/android/app/src/main/AndroidManifest.xml:40:13-43:29
action#android.intent.action.MAIN
ADDED from /Users/shazakashlan/workspace/WeatherForecast/android/app/src/main/AndroidManifest.xml:41:17-68
	android:name
		ADDED from /Users/shazakashlan/workspace/WeatherForecast/android/app/src/main/AndroidManifest.xml:41:25-66
category#android.intent.category.LAUNCHER
ADDED from /Users/shazakashlan/workspace/WeatherForecast/android/app/src/main/AndroidManifest.xml:42:17-76
	android:name
		ADDED from /Users/shazakashlan/workspace/WeatherForecast/android/app/src/main/AndroidManifest.xml:42:27-74
meta-data#flutterEmbedding
ADDED from /Users/shazakashlan/workspace/WeatherForecast/android/app/src/main/AndroidManifest.xml:48:9-50:33
	android:value
		ADDED from /Users/shazakashlan/workspace/WeatherForecast/android/app/src/main/AndroidManifest.xml:50:13-30
	android:name
		ADDED from /Users/shazakashlan/workspace/WeatherForecast/android/app/src/main/AndroidManifest.xml:49:13-44
uses-sdk
INJECTED from /Users/shazakashlan/workspace/WeatherForecast/android/app/src/main/AndroidManifest.xml reason: use-sdk injection requested
INJECTED from /Users/shazakashlan/workspace/WeatherForecast/android/app/src/main/AndroidManifest.xml
INJECTED from /Users/shazakashlan/workspace/WeatherForecast/android/app/src/main/AndroidManifest.xml
MERGED from [:geolocator] /Users/shazakashlan/workspace/WeatherForecast/build/geolocator/intermediates/library_manifest/debug/AndroidManifest.xml:5:5-44
MERGED from [:geolocator] /Users/shazakashlan/workspace/WeatherForecast/build/geolocator/intermediates/library_manifest/debug/AndroidManifest.xml:5:5-44
MERGED from [:location_permissions] /Users/shazakashlan/workspace/WeatherForecast/build/location_permissions/intermediates/library_manifest/debug/AndroidManifest.xml:5:5-44
MERGED from [:location_permissions] /Users/shazakashlan/workspace/WeatherForecast/build/location_permissions/intermediates/library_manifest/debug/AndroidManifest.xml:5:5-44
MERGED from [:shared_preferences] /Users/shazakashlan/workspace/WeatherForecast/build/shared_preferences/intermediates/library_manifest/debug/AndroidManifest.xml:5:5-44
MERGED from [:shared_preferences] /Users/shazakashlan/workspace/WeatherForecast/build/shared_preferences/intermediates/library_manifest/debug/AndroidManifest.xml:5:5-44
MERGED from [:permission_handler] /Users/shazakashlan/workspace/WeatherForecast/build/permission_handler/intermediates/library_manifest/debug/AndroidManifest.xml:5:5-44
MERGED from [:permission_handler] /Users/shazakashlan/workspace/WeatherForecast/build/permission_handler/intermediates/library_manifest/debug/AndroidManifest.xml:5:5-44
MERGED from [:access_settings_menu] /Users/shazakashlan/workspace/WeatherForecast/build/access_settings_menu/intermediates/library_manifest/debug/AndroidManifest.xml:5:5-44
MERGED from [:access_settings_menu] /Users/shazakashlan/workspace/WeatherForecast/build/access_settings_menu/intermediates/library_manifest/debug/AndroidManifest.xml:5:5-44
MERGED from [:searchable_dropdown] /Users/shazakashlan/workspace/WeatherForecast/build/searchable_dropdown/intermediates/library_manifest/debug/AndroidManifest.xml:5:5-44
MERGED from [:searchable_dropdown] /Users/shazakashlan/workspace/WeatherForecast/build/searchable_dropdown/intermediates/library_manifest/debug/AndroidManifest.xml:5:5-44
MERGED from [:google_api_availability] /Users/shazakashlan/workspace/WeatherForecast/build/google_api_availability/intermediates/library_manifest/debug/AndroidManifest.xml:5:5-44
MERGED from [:google_api_availability] /Users/shazakashlan/workspace/WeatherForecast/build/google_api_availability/intermediates/library_manifest/debug/AndroidManifest.xml:5:5-44
MERGED from [com.google.android.gms:play-services-location:16.0.0] /Users/shazakashlan/.gradle/caches/transforms-2/files-2.1/a3c0f30214109547a24f66634bcfe4f6/jetified-play-services-location-16.0.0/AndroidManifest.xml:5:5-44
MERGED from [com.google.android.gms:play-services-location:16.0.0] /Users/shazakashlan/.gradle/caches/transforms-2/files-2.1/a3c0f30214109547a24f66634bcfe4f6/jetified-play-services-location-16.0.0/AndroidManifest.xml:5:5-44
MERGED from [com.google.android.gms:play-services-base:17.2.1] /Users/shazakashlan/.gradle/caches/transforms-2/files-2.1/f81e9fffe318fdc5660099e12e35729e/play-services-base-17.2.1/AndroidManifest.xml:20:5-44
MERGED from [com.google.android.gms:play-services-base:17.2.1] /Users/shazakashlan/.gradle/caches/transforms-2/files-2.1/f81e9fffe318fdc5660099e12e35729e/play-services-base-17.2.1/AndroidManifest.xml:20:5-44
MERGED from [com.google.android.gms:play-services-places-placereport:16.0.0] /Users/shazakashlan/.gradle/caches/transforms-2/files-2.1/5c697fec7e55e9bb60005789c206ab6c/play-services-places-placereport-16.0.0/AndroidManifest.xml:20:5-44
MERGED from [com.google.android.gms:play-services-places-placereport:16.0.0] /Users/shazakashlan/.gradle/caches/transforms-2/files-2.1/5c697fec7e55e9bb60005789c206ab6c/play-services-places-placereport-16.0.0/AndroidManifest.xml:20:5-44
MERGED from [com.google.android.gms:play-services-tasks:17.0.2] /Users/shazakashlan/.gradle/caches/transforms-2/files-2.1/32e01e3a0b7905dca7a358a9820047fe/play-services-tasks-17.0.2/AndroidManifest.xml:5:5-44
MERGED from [com.google.android.gms:play-services-tasks:17.0.2] /Users/shazakashlan/.gradle/caches/transforms-2/files-2.1/32e01e3a0b7905dca7a358a9820047fe/play-services-tasks-17.0.2/AndroidManifest.xml:5:5-44
MERGED from [com.google.android.gms:play-services-basement:17.2.1] /Users/shazakashlan/.gradle/caches/transforms-2/files-2.1/b1eeb30505ac0c437b3c526c89f26020/jetified-play-services-basement-17.2.1/AndroidManifest.xml:20:5-44
MERGED from [com.google.android.gms:play-services-basement:17.2.1] /Users/shazakashlan/.gradle/caches/transforms-2/files-2.1/b1eeb30505ac0c437b3c526c89f26020/jetified-play-services-basement-17.2.1/AndroidManifest.xml:20:5-44
MERGED from [androidx.fragment:fragment:1.1.0] /Users/shazakashlan/.gradle/caches/transforms-2/files-2.1/0986d0d74b8a2c7da8161f6370fc7744/fragment-1.1.0/AndroidManifest.xml:20:5-22:41
MERGED from [androidx.fragment:fragment:1.1.0] /Users/shazakashlan/.gradle/caches/transforms-2/files-2.1/0986d0d74b8a2c7da8161f6370fc7744/fragment-1.1.0/AndroidManifest.xml:20:5-22:41
MERGED from [androidx.activity:activity:1.0.0] /Users/shazakashlan/.gradle/caches/transforms-2/files-2.1/615cab8ad6393a9c868d48761bbea666/activity-1.0.0/AndroidManifest.xml:20:5-22:41
MERGED from [androidx.activity:activity:1.0.0] /Users/shazakashlan/.gradle/caches/transforms-2/files-2.1/615cab8ad6393a9c868d48761bbea666/activity-1.0.0/AndroidManifest.xml:20:5-22:41
MERGED from [androidx.viewpager:viewpager:1.0.0] /Users/shazakashlan/.gradle/caches/transforms-2/files-2.1/28d99d5113324aa067757f8ca41a426f/viewpager-1.0.0/AndroidManifest.xml:20:5-44
MERGED from [androidx.viewpager:viewpager:1.0.0] /Users/shazakashlan/.gradle/caches/transforms-2/files-2.1/28d99d5113324aa067757f8ca41a426f/viewpager-1.0.0/AndroidManifest.xml:20:5-44
MERGED from [androidx.loader:loader:1.0.0] /Users/shazakashlan/.gradle/caches/transforms-2/files-2.1/e1bbce6b0d79e8479b70e7bd729bb743/loader-1.0.0/AndroidManifest.xml:20:5-44
MERGED from [androidx.loader:loader:1.0.0] /Users/shazakashlan/.gradle/caches/transforms-2/files-2.1/e1bbce6b0d79e8479b70e7bd729bb743/loader-1.0.0/AndroidManifest.xml:20:5-44
MERGED from [androidx.customview:customview:1.0.0] /Users/shazakashlan/.gradle/caches/transforms-2/files-2.1/ef0bef029ab70f5fb29de019060cf5fd/customview-1.0.0/AndroidManifest.xml:20:5-44
MERGED from [androidx.customview:customview:1.0.0] /Users/shazakashlan/.gradle/caches/transforms-2/files-2.1/ef0bef029ab70f5fb29de019060cf5fd/customview-1.0.0/AndroidManifest.xml:20:5-44
MERGED from [androidx.core:core:1.2.0] /Users/shazakashlan/.gradle/caches/transforms-2/files-2.1/b6252bb7f30c7dceb20e97dfa6dfae00/core-1.2.0/AndroidManifest.xml:20:5-22:41
MERGED from [androidx.core:core:1.2.0] /Users/shazakashlan/.gradle/caches/transforms-2/files-2.1/b6252bb7f30c7dceb20e97dfa6dfae00/core-1.2.0/AndroidManifest.xml:20:5-22:41
MERGED from [androidx.lifecycle:lifecycle-runtime:2.2.0] /Users/shazakashlan/.gradle/caches/transforms-2/files-2.1/49ede1f7b9aa322a43288e9745adc2db/lifecycle-runtime-2.2.0/AndroidManifest.xml:20:5-22:41
MERGED from [androidx.lifecycle:lifecycle-runtime:2.2.0] /Users/shazakashlan/.gradle/caches/transforms-2/files-2.1/49ede1f7b9aa322a43288e9745adc2db/lifecycle-runtime-2.2.0/AndroidManifest.xml:20:5-22:41
MERGED from [androidx.savedstate:savedstate:1.0.0] /Users/shazakashlan/.gradle/caches/transforms-2/files-2.1/54d8b8735f730e83f07925f758092af3/savedstate-1.0.0/AndroidManifest.xml:20:5-22:41
MERGED from [androidx.savedstate:savedstate:1.0.0] /Users/shazakashlan/.gradle/caches/transforms-2/files-2.1/54d8b8735f730e83f07925f758092af3/savedstate-1.0.0/AndroidManifest.xml:20:5-22:41
MERGED from [androidx.lifecycle:lifecycle-livedata:2.0.0] /Users/shazakashlan/.gradle/caches/transforms-2/files-2.1/23edc849475fdda61367cb003f9b9f93/lifecycle-livedata-2.0.0/AndroidManifest.xml:20:5-44
MERGED from [androidx.lifecycle:lifecycle-livedata:2.0.0] /Users/shazakashlan/.gradle/caches/transforms-2/files-2.1/23edc849475fdda61367cb003f9b9f93/lifecycle-livedata-2.0.0/AndroidManifest.xml:20:5-44
MERGED from [androidx.lifecycle:lifecycle-livedata-core:2.0.0] /Users/shazakashlan/.gradle/caches/transforms-2/files-2.1/79f9d65ef8b1c716310f666473a689a7/lifecycle-livedata-core-2.0.0/AndroidManifest.xml:20:5-44
MERGED from [androidx.lifecycle:lifecycle-livedata-core:2.0.0] /Users/shazakashlan/.gradle/caches/transforms-2/files-2.1/79f9d65ef8b1c716310f666473a689a7/lifecycle-livedata-core-2.0.0/AndroidManifest.xml:20:5-44
MERGED from [androidx.arch.core:core-runtime:2.0.0] /Users/shazakashlan/.gradle/caches/transforms-2/files-2.1/077300052aa327ee6fc9bbb0ce309b24/core-runtime-2.0.0/AndroidManifest.xml:20:5-44
MERGED from [androidx.arch.core:core-runtime:2.0.0] /Users/shazakashlan/.gradle/caches/transforms-2/files-2.1/077300052aa327ee6fc9bbb0ce309b24/core-runtime-2.0.0/AndroidManifest.xml:20:5-44
MERGED from [androidx.versionedparcelable:versionedparcelable:1.1.0] /Users/shazakashlan/.gradle/caches/transforms-2/files-2.1/3a7eb299570065a3866b140e1a95969b/versionedparcelable-1.1.0/AndroidManifest.xml:20:5-22:41
MERGED from [androidx.versionedparcelable:versionedparcelable:1.1.0] /Users/shazakashlan/.gradle/caches/transforms-2/files-2.1/3a7eb299570065a3866b140e1a95969b/versionedparcelable-1.1.0/AndroidManifest.xml:20:5-22:41
MERGED from [androidx.lifecycle:lifecycle-viewmodel:2.1.0] /Users/shazakashlan/.gradle/caches/transforms-2/files-2.1/b80fad55c42c418cc210e235056767fb/lifecycle-viewmodel-2.1.0/AndroidManifest.xml:20:5-44
MERGED from [androidx.lifecycle:lifecycle-viewmodel:2.1.0] /Users/shazakashlan/.gradle/caches/transforms-2/files-2.1/b80fad55c42c418cc210e235056767fb/lifecycle-viewmodel-2.1.0/AndroidManifest.xml:20:5-44
MERGED from [androidx.multidex:multidex:2.0.0] /Users/shazakashlan/.gradle/caches/transforms-2/files-2.1/2b16ac6c4193835014f293427ee35afa/multidex-2.0.0/AndroidManifest.xml:20:5-43
MERGED from [androidx.multidex:multidex:2.0.0] /Users/shazakashlan/.gradle/caches/transforms-2/files-2.1/2b16ac6c4193835014f293427ee35afa/multidex-2.0.0/AndroidManifest.xml:20:5-43
INJECTED from /Users/shazakashlan/workspace/WeatherForecast/android/app/src/debug/AndroidManifest.xml
INJECTED from /Users/shazakashlan/workspace/WeatherForecast/android/app/src/debug/AndroidManifest.xml
	android:targetSdkVersion
		INJECTED from /Users/shazakashlan/workspace/WeatherForecast/android/app/src/main/AndroidManifest.xml
		INJECTED from /Users/shazakashlan/workspace/WeatherForecast/android/app/src/debug/AndroidManifest.xml
	android:minSdkVersion
		INJECTED from /Users/shazakashlan/workspace/WeatherForecast/android/app/src/main/AndroidManifest.xml
		INJECTED from /Users/shazakashlan/workspace/WeatherForecast/android/app/src/debug/AndroidManifest.xml
activity#com.google.android.gms.common.api.GoogleApiActivity
ADDED from [com.google.android.gms:play-services-base:17.2.1] /Users/shazakashlan/.gradle/caches/transforms-2/files-2.1/f81e9fffe318fdc5660099e12e35729e/play-services-base-17.2.1/AndroidManifest.xml:23:9-26:75
	android:exported
		ADDED from [com.google.android.gms:play-services-base:17.2.1] /Users/shazakashlan/.gradle/caches/transforms-2/files-2.1/f81e9fffe318fdc5660099e12e35729e/play-services-base-17.2.1/AndroidManifest.xml:25:13-37
	android:theme
		ADDED from [com.google.android.gms:play-services-base:17.2.1] /Users/shazakashlan/.gradle/caches/transforms-2/files-2.1/f81e9fffe318fdc5660099e12e35729e/play-services-base-17.2.1/AndroidManifest.xml:26:13-72
	android:name
		ADDED from [com.google.android.gms:play-services-base:17.2.1] /Users/shazakashlan/.gradle/caches/transforms-2/files-2.1/f81e9fffe318fdc5660099e12e35729e/play-services-base-17.2.1/AndroidManifest.xml:24:13-79
meta-data#com.google.android.gms.version
ADDED from [com.google.android.gms:play-services-basement:17.2.1] /Users/shazakashlan/.gradle/caches/transforms-2/files-2.1/b1eeb30505ac0c437b3c526c89f26020/jetified-play-services-basement-17.2.1/AndroidManifest.xml:23:9-25:69
	android:value
		ADDED from [com.google.android.gms:play-services-basement:17.2.1] /Users/shazakashlan/.gradle/caches/transforms-2/files-2.1/b1eeb30505ac0c437b3c526c89f26020/jetified-play-services-basement-17.2.1/AndroidManifest.xml:25:13-66
	android:name
		ADDED from [com.google.android.gms:play-services-basement:17.2.1] /Users/shazakashlan/.gradle/caches/transforms-2/files-2.1/b1eeb30505ac0c437b3c526c89f26020/jetified-play-services-basement-17.2.1/AndroidManifest.xml:24:13-58
